\relax 
\catcode `"\active 
\bibstyle{e-revdetua}
\citation{torcs}
\citation{torcs}
\bibdata{...}
\bibcite{torcs}{1}
\bibcite{lamport94}{2}
\select@language{english}
\@writefile{toc}{\select@language{english}}
\@writefile{lof}{\select@language{english}}
\@writefile{lot}{\select@language{english}}
\select@language{english}
\@writefile{toc}{\select@language{english}}
\@writefile{lof}{\select@language{english}}
\@writefile{lot}{\select@language{english}}
\select@language{english}
\@writefile{toc}{\select@language{english}}
\@writefile{lof}{\select@language{english}}
\@writefile{lot}{\select@language{english}}
\select@language{english}
\@writefile{toc}{\select@language{english}}
\@writefile{lof}{\select@language{english}}
\@writefile{lot}{\select@language{english}}
\select@language{portuguese}
\@writefile{toc}{\select@language{portuguese}}
\@writefile{lof}{\select@language{portuguese}}
\@writefile{lot}{\select@language{portuguese}}
\select@language{english}
\@writefile{toc}{\select@language{english}}
\@writefile{lof}{\select@language{english}}
\@writefile{lot}{\select@language{english}}
\select@language{english}
\@writefile{toc}{\select@language{english}}
\@writefile{lof}{\select@language{english}}
\@writefile{lot}{\select@language{english}}
\select@language{english}
\@writefile{toc}{\select@language{english}}
\@writefile{lof}{\select@language{english}}
\@writefile{lot}{\select@language{english}}
\newlabel{tab:1}{{I}{6}}
\newlabel{nao sei}{{1}{6}}
\newlabel{equacao_curva}{{2}{6}}
\newlabel{equacao_curva_aplicada}{{3}{6}}
\newlabel{d_safe}{{4}{6}}
\bibcite{tutorial}{3}
\bibcite{curveFriction}{4}
